{
    "cafe": [
        {
            "X": [
                969,
                950,
                963,
                966,
                970,
                1002
            ],
            "Y": [
                -1119,
                -1092,
                -1081,
                -1077,
                -1070,
                -1090
            ]
        }
    ]
}