{
   "client_1" : [
      "^6| ^C^7Відвези мене на %s",
      "^6| ^C^7Підкинь на %s",
      "^6| ^C^7Мені потрібно на %s",
      "^6| ^C^7Підвези на %s",
      "^6| ^C^7Їдемо на %s",
      "^6| ^C^7Вези мене на %s",
      "^6| ^C^7Мені на %s"
   ],
   "client_2" : [
      "^6| ^C^7Не задавай питань, гони на %s!",
      "^6| ^C^7Я дуже поспішаю, погнали на %s",
      "^6| ^C^7Гони, гони, запізнююсь! Вези меня на %s!",
      "^6| ^C^7Нема часу пояснювати, гони на %s!!!",
      "^6| ^C^7Тапка в підлогу! Дружина народжує, вези на %s ",
      "^6| ^C^7Чуваче, відвези мене якомога швидше на %s",
      "^6| ^C^7Ну нарешті!!! Гони на %s!",
      "^6| ^C^7Де тебе чорти носять?! Я вже повинен бути на %s!",
      "^6| ^C^7А швидше приїхати не міг? Я запізнююсь, терміново на %s!",
      "^6| ^C^7Я вже півгодини тебе чекаю, погнали на %s",
      "^6| ^C^7Шо так довго??? Швидко на %s!",
      "^6| ^C^7Мені на %s і швидко!",
      "^6| ^C^7АААА давай на %s! Мужик, топи, срати хочу!!!"
   ],
   "client_21" : [
      "^6| ^C^7Опа-опа! Гони, чуваче, ГОНИ!!!",
      "^6| ^C^7ААААА мене ж заметуть!!! Педаль в підлогу!!!",
      "^6| ^C^7Чорт! У мене ж повні кишені дурі, не дай їм мене піймати!",
      "^6| ^C^7Ха! Б'ємось об заклад на п'ятихатку, що не відірвешся?",
      "^6| ^C^7Відірвешся? Заплачу більше, тільки не гальмуй",
      "^6| ^C^7Оооо, гони! Як висадиш - далі вже кожен сам за себе"
   ],
   "client_3" : [
      "^6| ^C^7Треба заїхати за товаришем, потім покажу куди їхати",
      "^6| ^C^7Поїхали, заберемо братюню мого",
      "^6| ^C^7Їдемо, підберемо ще торчка одного",
      "^6| ^C^7Поїхали, друга мого заберем по дорозі",
      "^6| ^C^7Чого встав? Поїхали! І кореша мого по дорозі підберем"
   ],
   "client_31" : [
      "^6| ^C^7Чудово, всі в зборі, їдемо на %s ",
      "^6| ^C^7Зараз поїхали на %s",
      "^6| ^C^7Тепер вези нас на %s",
      "^6| ^C^7Чудово, а тепер поїхали на %s",
      "^6| ^C^7Вези нас на %s",
      "^6| ^C^7А тепер на %s",
      "^6| ^C^7Нам на %s"
   ],
   "client_4" : [
      "^6| ^C^7Воу воу, ти куди мене привіз?",
      "^6| ^C^7Хм... Здається, це не те місце",
      "^6| ^C^7Блііін, я помилився, вибачай.",
      "^6| ^C^7Здається ми приїхали не туди...",
      "^6| ^C^7Не впізнаю це місце, здається мені не сюди",
      "^6| ^C^7Куди ти мене привіз?!",
      "^6| ^C^7Сорі, плани змінились",
      "^6| ^C^7Ні, це не те місце, я помилився",
      "^6| ^C^7Ей, це ми де взагалі??? Мені не сюди треба!"
   ],
   "client_5" : [
      "^6| ^C^7Вези мене на %s, тілько тихо й акуратно",
      "^6| ^C^7Покотили на %s, не поспішай сильно",
      "^6| ^C^7Відвези мене на %s. Башка болить, не гони сильно",
      "^6| ^C^7Я вагітна, тому обережно й повільно вези мене на %s",
      "^6| ^C^7Хей! У мене в контейнері плутоній, дуже повільно й акуратно їдемо на %s",
      "^6| ^C^7У мене тут каністра сірчаної кислоти, не розгойдуй машину. Мені на %s"
   ],
   "con" : [
      "^6| ^C^7Ти мене вбити хочеш?!",
      "^6| ^C^7Господи, ми його збили?",
      "^6| ^C^7Ти на дорогу взагалі дивишся?",
      "^6| ^C^7Я екстриму не замовляв!!!",
      "^6| ^C^7Якщо ви застраховані - це не привід всіх давити",
      "^6| ^C^7Здається, в цій аварії я втратив ногу. Я можу розраховувати на знижку?",
      "^6| ^C^7ААААА! Що ти робиш?!"
   ],
   "dist" : [
      "^6| ^C^7Приїхали. Скільки я вам повинен?",
      "^6| ^C^7Десь там, ооось, ось тут, ще трішки...",
      "^6| ^C^7Ось моя зупинка, як тут двері то відчиняються?",
      "^6| ^C^7Приїхали",
      "^6| ^C^7Зупини тут",
      "^6| ^C^7Мені сюди, гальмуй"
   ],
   "done" : [
      "^6| ^C^7Дякую, ось ваші гроші",
      "^6| ^C^7Хоч живий залишився... Дякую",
      "^6| ^C^7Ось ваші гроші",
      "^6| ^C^7Дякую",
      "^6| ^C^7Дякую. Хай щастить!",
      "^6| ^C^7Решти не треба"
   ],
   "endtimer" : [
      "^6| ^C^7Я запізнився. Дулю тобі з маком, а не гроші",
      "^6| ^C^7Чого ти тащишся, сказав же, запізнююсь",
      "^6| ^C^7Ще повільніше не міг? Я запізнився",
      "^6| ^C^7Не встигли.",
      "^6| ^C^7Ти не встиг, можна вже не поспішати",
      "^6| ^C^7Просив же, швидше! Тепер вже немає сенсу поспішати."
   ],
   "exit" : [
      "^6| ^C^7Да тебе від суспільства треба ізолювати! Ненормальний!",
      "^6| ^C^7Моя бабушка краще водить, ніж ти",
      "^6| ^C^7Мда уж краще б я пішки пішов...",
      "^6| ^C^7Твоє кoрито мене не влаштовує",
      "^6| ^C^7Хіба це таксі?",
      "^6| ^C^7Покидьок...",
      "^6| ^C^7Вали!",
      "^6| ^C^7Тепер я знаю, рівних доріг не буває..."
   ],
   "needstop" : [
      "^6| ^C^7Випусти мене",
      "^6| ^C^7Гальмуй! Випусти мене!",
      "^6| ^C^7Випусти меня!!!",
      "^6| ^C^7Зупини!",
      "^6| ^C^7Зупини авто!",
      "^6| ^C^7Я хочу вийти, гальмуй"
   ],
   "obh" : [
      "^6| ^C^7Ти що сліпий чи що, куди їдиш?!",
      "^6| ^C^7Не колоди везеш! Обережніше!",
      "^6| ^C^7І чим ти тільки рулиш?",
      "^6| ^C^7Зрізати не вдалось?",
      "^6| ^C^7Здається цей паркан міцніше вашого авто",
      "^6| ^C^7Ваше побачення з відбійником мене не стосується",
      "^6| ^C^7Воу воу, легше, чуваче!",
      "^6| ^C^7Да хто так їздить?"
   ],
   "past" : [
      "^6| ^C^7Куди ти їдеш! Мені треба було тут вийти!",
      "^6| ^C^7Гальмувати треба іншою педаллю!",
      "^6| ^C^7Ви мене в ліс везете?",
      "^6| ^C^7Платити поверх я не буду",
      "^6| ^C^7Здається зупинка була десь там...",
      "^6| ^C^7Ой, ми їдемо в інше місце?",
      "^6| ^C^7Я не хочу в ліс! Вези мене на зупинку"
   ],
   "pursuit" : [
      "^6| ^C^7МУСОРА! Висади мене!!!",
      "^6| ^C^7Я не хочу в цьому брати участь, це твої проблеми",
      "^6| ^C^7Гальмуй, мені не треба неприємностей",
      "^6| ^C^7Ей! Що ти накоїв??? Негайно зупинись!!!"
   ],
   "redlight" : [
      "^6| ^C^7Там був червоний!",
      "^6| ^C^7Ми що, проїхали на червоний?",
      "^6| ^C^7Ти на світлофори дивишся?!",
      "^6| ^C^7Слідкуй за світлофорами! Червоний!",
      "^6| ^C^7Ми щойно проїхали на червоний",
      "^6| ^C^7Де ти вчився їздити? Червоний!",
      "^6| ^C^7Ідіот!!! Червоний сигнал!",
      "^6| ^C^7Червоний був. У вас не відберуть права?",
      "^6| ^C^7Ти права купив в комісійному відділі?",
      "^6| ^C^7Це обов'язково було робити?!"
   ],
   "speed" : [
      "^6| ^C^7Не гони",
      "^6| ^C^7Пригальмуй!",
      "^6| ^C^7Збав швидкість!",
      "^6| ^C^7Прибери ногу з газу",
      "^6| ^C^7Ей! Я не хочу розбитись!",
      "^6| ^C^7Не треба бешкетувати",
      "^6| ^C^7Мені здається, ця машина зараз развалиться",
      "^6| ^C^7Яке тут обмеження швидкості?",
      "^6| ^C^7Я ще ціную своє життя, дивись на спідометр",
      "^6| ^C^7Ей, ми не в стрітсракерів граємо, просто довези мене",
      "^6| ^C^7Воу воу, повільніше!",
      "^6| ^C^7Чорт! Я ж не пристебнутий ще… Чорт-чорт-чорт…",
      "^6| ^C^7Обмеження швидкості й для тебе теж, а не лише для велосипедистів!",
      "^6| ^C^7Я сьогодні без підгузника, тому їдемо повільно.",
      "^6| ^C^7Не треба так гнати, я не поспішаю."
   ],
   "speedhump" : [
      "^6| ^C^7Це обов'язково було робити?!",
      "^6| ^C^7Обережніше!",
      "^6| ^C^7Я собі макушку відбив!!!",
      "^6| ^C^7Да що ти твориш?! На дорогу дивись!!!",
      "^6| ^C^7Тебе не хвилює твоя підвіска? А я про свою голову дбаю!!!",
      "^6| ^C^7Ай! Я собі все відіб'ю!"
   ],
   "speedoff" : [
      "^6| ^C^7Ну, чого стали то? Поїхали!",
      "^6| ^C^7Шахи чи їхати, йопта?",
      "^6| ^C^7Довго ще стояти будемо?",
      "^6| ^C^7Поїхали, я не збираюсь цілий день тут сидіти",
      "^6| ^C^7Ми їдемо чи ні?",
      "^6| ^C^7Чому стоїмо?",
      "^6| ^C^7Нннооо! Сить, трав'яний мішок!",
      "^6| ^C^7Поїхали вже",
      "^6| ^C^7Ей, ало! Прокинься! Ми їдемо чи як?"
   ]
}