9 -581 -79 266
9 -486 -81 270
9 -303 35 177
9 -357 -54 105
1 -751 -144 199
2 -759 -189 318
2 -278 -1031 206
2 -251 -1084 4
1 -227 -1058 89
2 752 -850 121
2 654 -712 121
1 415 -375 213
1 474 -452 35
1 147 155 298
1 188 183 113
1 18 968 345
2 3 1012 228
9 -309 563 184
9 -301 266 6
1 -733 -59 81
9 -388 -312 273
9 -228 -315 80
1 -120 162 180
1 -116 65 0
9 -25 102 270
9 22 182 317
9 64 207 110
2 148 190 221
2 185 148 39
2 -771 -21 170
2 -770 -86 19
3 503 -615 33
3 459 -555 212
